top_tb.vcd
$date
	Sun Apr 20 19:35:11 2025
$end
$version
	Icarus Verilog
$end
$timescale
	1ps
$end
$scope module top_tb $end
$var wire 1 ! red $end
$var wire 1 " led $end
$var wire 1 # green $end
$var wire 1 $ blue $end
$var reg 1 % clk $end
$scope module u_top $end
$var wire 1 % clk $end
$var wire 1 & memory_wen $end
$var wire 32 ' memory_wd [31:0] $end
$var wire 32 ( memory_wa [31:0] $end
$var wire 32 ) memory_rd [31:0] $end
$var wire 32 * memory_ra [31:0] $end
$var wire 3 + memory_func3 [2:0] $end
$var wire 1 ! RGB_R $end
$var wire 1 # RGB_G $end
$var wire 1 $ RGB_B $end
$var wire 1 " LED $end
$scope module u_memory $end
$var wire 1 % clk $end
$var wire 1 & write_mem $end
$var wire 32 , write_data [31:0] $end
$var wire 32 - write_address [31:0] $end
$var wire 1 . sign_bit3 $end
$var wire 1 / sign_bit2 $end
$var wire 1 0 sign_bit1 $end
$var wire 1 1 sign_bit0 $end
$var wire 1 ! red $end
$var wire 16 2 read_value32 [15:0] $end
$var wire 8 3 read_value3 [7:0] $end
$var wire 8 4 read_value2 [7:0] $end
$var wire 16 5 read_value10 [15:0] $end
$var wire 8 6 read_value1 [7:0] $end
$var wire 8 7 read_value0 [7:0] $end
$var wire 32 8 read_address [31:0] $end
$var wire 1 " led $end
$var wire 1 # green $end
$var wire 3 9 funct3 [2:0] $end
$var wire 1 $ blue $end
$var parameter 168 : INIT_FILE $end
$var reg 32 ; leds [31:0] $end
$var reg 32 < micros [31:0] $end
$var reg 4 = micros_counter [3:0] $end
$var reg 32 > millis [31:0] $end
$var reg 14 ? millis_counter [13:0] $end
$var reg 8 @ pwm_counter [7:0] $end
$var reg 1 A read_address0 $end
$var reg 1 B read_address1 $end
$var reg 32 C read_data [31:0] $end
$var reg 1 D read_half $end
$var reg 1 E read_unsigned $end
$var reg 32 F read_value [31:0] $end
$var reg 1 G read_word $end
$upscope $end
$scope module u_risc_v $end
$var wire 1 % clk $end
$var wire 32 H memory_rd [31:0] $end
$var wire 32 I rs2_data [31:0] $end
$var wire 5 J rs2 [4:0] $end
$var wire 32 K rs1_data [31:0] $end
$var wire 5 L rs1 [4:0] $end
$var wire 1 M reg_wen $end
$var wire 2 N rd_source [1:0] $end
$var wire 5 O rd [4:0] $end
$var wire 2 P pc_source [1:0] $end
$var wire 32 Q pc_out [31:0] $end
$var wire 32 R pc_in [31:0] $end
$var wire 7 S opcode [6:0] $end
$var wire 1 & memory_wen $end
$var wire 32 T memory_ra [31:0] $end
$var wire 3 U memory_func3 [2:0] $end
$var wire 3 V instruction_type [2:0] $end
$var wire 32 W instruction [31:0] $end
$var wire 32 X immediate [31:0] $end
$var wire 7 Y func7 [6:0] $end
$var wire 3 Z func3 [2:0] $end
$var wire 2 [ alu_source [1:0] $end
$var wire 32 \ alu_result [31:0] $end
$var wire 5 ] alu_op [4:0] $end
$var parameter 7 ^ OP_AUIPC $end
$var parameter 7 _ OP_BRANCH $end
$var parameter 7 ` OP_IMM $end
$var parameter 7 a OP_JAL $end
$var parameter 7 b OP_JALR $end
$var parameter 7 c OP_LOAD $end
$var parameter 7 d OP_LUI $end
$var parameter 7 e OP_REG $end
$var parameter 7 f OP_STORE $end
$var reg 2 g action_type [1:0] $end
$var reg 32 h alu_a [31:0] $end
$var reg 32 i alu_b [31:0] $end
$var reg 32 j memory_wa [31:0] $end
$var reg 32 k memory_wd [31:0] $end
$var reg 32 l rdv [31:0] $end
$scope module u_alu $end
$var wire 32 m alu_a [31:0] $end
$var wire 32 n alu_b [31:0] $end
$var wire 1 o unsigned_lt $end
$var wire 1 p signed_lt $end
$var wire 32 q shift_amount [31:0] $end
$var wire 1 r equal $end
$var wire 5 s alu_op [4:0] $end
$var parameter 5 t ALU_ADD $end
$var parameter 5 u ALU_AND $end
$var parameter 5 v ALU_AUIPC $end
$var parameter 5 w ALU_BEQ $end
$var parameter 5 x ALU_BGE $end
$var parameter 5 y ALU_BGEU $end
$var parameter 5 z ALU_BLT $end
$var parameter 5 { ALU_BLTU $end
$var parameter 5 | ALU_BNE $end
$var parameter 5 } ALU_LUI $end
$var parameter 5 ~ ALU_OR $end
$var parameter 5 !" ALU_SLL $end
$var parameter 5 "" ALU_SLT $end
$var parameter 5 #" ALU_SLTU $end
$var parameter 5 $" ALU_SRA $end
$var parameter 5 %" ALU_SRL $end
$var parameter 5 &" ALU_SUB $end
$var parameter 5 '" ALU_XOR $end
$var reg 32 (" add_sub_result [31:0] $end
$var reg 32 )" alu_result [31:0] $end
$upscope $end
$scope module u_control $end
$var wire 3 *" func3 [2:0] $end
$var wire 7 +" func7 [6:0] $end
$var wire 7 ," opcode [6:0] $end
$var parameter 5 -" ALU_ADD $end
$var parameter 5 ." ALU_AND $end
$var parameter 5 /" ALU_AUIPC $end
$var parameter 5 0" ALU_BEQ $end
$var parameter 5 1" ALU_BGE $end
$var parameter 5 2" ALU_BGEU $end
$var parameter 5 3" ALU_BLT $end
$var parameter 5 4" ALU_BLTU $end
$var parameter 5 5" ALU_BNE $end
$var parameter 5 6" ALU_LUI $end
$var parameter 5 7" ALU_OR $end
$var parameter 5 8" ALU_SLL $end
$var parameter 5 9" ALU_SLT $end
$var parameter 5 :" ALU_SLTU $end
$var parameter 5 ;" ALU_SRA $end
$var parameter 5 <" ALU_SRL $end
$var parameter 5 =" ALU_SUB $end
$var parameter 5 >" ALU_XOR $end
$var parameter 7 ?" OP_AUIPC $end
$var parameter 7 @" OP_BRANCH $end
$var parameter 7 A" OP_IMM $end
$var parameter 7 B" OP_JAL $end
$var parameter 7 C" OP_JALR $end
$var parameter 7 D" OP_LOAD $end
$var parameter 7 E" OP_LUI $end
$var parameter 7 F" OP_REG $end
$var parameter 7 G" OP_STORE $end
$var reg 5 H" alu_op [4:0] $end
$var reg 2 I" alu_source [1:0] $end
$var reg 3 J" instruction_type [2:0] $end
$var reg 2 K" pc_source [1:0] $end
$var reg 2 L" rd_source [1:0] $end
$upscope $end
$scope module u_immed_gen $end
$var wire 7 M" opcode [6:0] $end
$var wire 32 N" instruction [31:0] $end
$var reg 32 O" immediate [31:0] $end
$upscope $end
$scope module u_program_counter $end
$var wire 32 P" alu_result [31:0] $end
$var wire 32 Q" immediate [31:0] $end
$var wire 2 R" pc_source [1:0] $end
$var wire 32 S" rs1_data [31:0] $end
$var wire 32 T" pc_rs1 [31:0] $end
$var wire 32 U" pc_increment [31:0] $end
$var wire 32 V" pc_in [31:0] $end
$var wire 32 W" pc_immed [31:0] $end
$var reg 32 X" pc_out [31:0] $end
$upscope $end
$scope module u_register_file $end
$var wire 1 % clk $end
$var wire 5 Y" rd [4:0] $end
$var wire 32 Z" rdv [31:0] $end
$var wire 5 [" rs1 [4:0] $end
$var wire 5 \" rs2 [4:0] $end
$var wire 32 ]" rs2_data [31:0] $end
$var wire 32 ^" rs1_data [31:0] $end
$var wire 1 M reg_wen $end
$scope begin $ivl_for_loop0 $end
$var integer 32 _" i [31:0] $end
$upscope $end
$upscope $end
$scope module u_state_machine $end
$var wire 2 `" action_type [1:0] $end
$var wire 1 % clk $end
$var wire 3 a" func3 [2:0] $end
$var wire 32 b" immediate [31:0] $end
$var wire 32 c" memory_rd [31:0] $end
$var wire 1 & memory_wen $end
$var wire 32 d" pc_out [31:0] $end
$var wire 1 M reg_wen $end
$var wire 32 e" rs1_data [31:0] $end
$var wire 3 f" memory_func3 [2:0] $end
$var reg 32 g" instruction [31:0] $end
$var reg 32 h" memory_ra [31:0] $end
$var reg 32 i" pc_in [31:0] $end
$var reg 2 j" state [1:0] $end
$upscope $end
$upscope $end
$upscope $end
$upscope $end
$enddefinitions $end
$comment Show the parameter values. $end
$dumpall
b100011 G"
b110011 F"
b110111 E"
b11 D"
b1100111 C"
b1101111 B"
b10011 A"
b1100011 @"
b10111 ?"
b101 >"
b1 ="
b110 <"
b111 ;"
b100 :"
b11 9"
b10 8"
b1000 7"
b1011 6"
b1101 5"
b10000 4"
b1110 3"
b10001 2"
b1111 1"
b1010 0"
b1100 /"
b1001 ."
b0 -"
b101 '"
b1 &"
b110 %"
b111 $"
b100 #"
b11 ""
b10 !"
b1000 ~
b1011 }
b1101 |
b10000 {
b1110 z
b10001 y
b1111 x
b1010 w
b1100 v
b1001 u
b0 t
b100011 f
b110011 e
b110111 d
b11 c
b1100111 b
b1101111 a
b10011 `
b1100011 _
b10111 ^
b11100100111011000110011001100100110100101011111011101000110010101110011011101000101111101110011011010010110111001100111011011000110010100101110011101000111100001110100 :
$end
#0
$dumpvars
b10 j"
b0 i"
b0 h"
b0 g"
b10 f"
b0 e"
b100 d"
b0 c"
b0 b"
b0 a"
b1 `"
b100000 _"
b0 ^"
b0 ]"
b0 \"
b0 ["
b0 Z"
b0 Y"
b100 X"
b0 W"
b0 V"
b100 U"
b0 T"
b0 S"
b11 R"
b0 Q"
b0 P"
b0 O"
b0 N"
b0 M"
b0 L"
b11 K"
bx J"
b0 I"
b0 H"
b0 ,"
b0 +"
b0 *"
b0 )"
b0 ("
b0 s
1r
b0 q
0p
0o
b0 n
b0 m
b0 l
bx k
bx j
b0 i
b0 h
b1 g
b0 ]
b0 \
b0 [
b0 Z
b0 Y
b0 X
b0 W
bx V
b10 U
b0 T
b0 S
b0 R
b100 Q
b11 P
b0 O
b0 N
1M
b0 L
b0 K
b0 J
b0 I
b0 H
xG
b0 F
xE
xD
b0 C
xB
xA
b0 @
b0 ?
b0 >
b0 =
b0 <
b0 ;
b10 9
b0 8
b0 7
b0 6
b0 5
b0 4
b0 3
b0 2
01
00
0/
0.
bx -
bx ,
b10 +
b0 *
b0 )
bx (
bx '
0&
0%
0$
0#
0"
0!
$end
#4000
b0 +
b0 9
b0 U
b0 f"
0M
bx 5
bx 2
bx 7
bx 6
bx 4
bx 3
x1
x0
x/
x.
bx )
bx C
bx H
bx c"
b0 j"
bx F
0E
0D
1G
0A
0B
b1 @
b1 ?
b1 =
1%
#8000
0%
#12000
bx l
bx Z"
b0xxxxx q
bx \
bx )"
bx P"
bx ("
bx i
bx n
xr
xp
xo
bx h
bx m
bx *
bx 8
bx T
bx h"
bx I
bx ]"
bx T"
bx K
bx S"
bx ^"
bx e"
bx +
bx 9
bx U
bx f"
bx M"
bx O
bx Y"
bx J
bx \"
bx L
bx ["
bx Y
bx +"
bx Z
bx *"
bx a"
bx S
bx ,"
1M
b10 =
b10 ?
b10 @
0G
bx W
bx N"
bx g"
b1 j"
1%
#16000
0%
#20000
b10 +
b10 9
b10 U
b10 f"
b1000 Q
b1000 X"
b1000 d"
b100 *
b100 8
b100 T
b100 h"
b0 5
b0 2
b0 7
b0 6
b0 4
b0 3
01
00
0/
0.
b0 )
b0 C
b0 H
b0 c"
b10 j"
b100 W"
b1000 U"
b100 R
b100 V"
b100 i"
b0 F
xE
xD
xG
xA
xB
b11 @
b11 ?
b11 =
1%
#24000
0%
#28000
bx +
bx 9
bx U
bx f"
bx 5
bx 2
bx 7
bx 6
bx 4
bx 3
x1
x0
x/
x.
bx )
bx C
bx H
bx c"
bx *
bx 8
bx T
bx h"
0M
b100 =
b100 ?
b100 @
bx F
0E
0D
1G
0A
0B
b0 j"
1%
#32000
0%
#36000
bx *
bx 8
bx T
bx h"
1M
b0 5
b0 2
b0 7
b0 6
b0 4
b0 3
01
00
0/
0.
b0 )
b0 C
b0 H
b0 c"
b1 j"
b0 F
xE
xD
xG
xA
xB
b101 @
b101 ?
b101 =
1%
#40000
0%
#44000
b10 +
b10 9
b10 U
b10 f"
b1100 Q
b1100 X"
b1100 d"
b1000 *
b1000 8
b1000 T
b1000 h"
b110 =
b110 ?
b110 @
b10 j"
b1000 W"
b1100 U"
b1000 R
b1000 V"
b1000 i"
1%
#48000
0%
#52000
bx +
bx 9
bx U
bx f"
bx *
bx 8
bx T
bx h"
0M
bx 5
bx 2
bx 7
bx 6
bx 4
bx 3
x1
x0
x/
x.
bx )
bx C
bx H
bx c"
b0 j"
bx F
0E
0D
1G
0A
0B
b111 @
b111 ?
b111 =
1%
#56000
0%
#60000
b0 5
b0 2
b0 7
b0 6
b0 4
b0 3
01
00
0/
0.
b0 )
b0 C
b0 H
b0 c"
bx *
bx 8
bx T
bx h"
1M
b1000 =
b1000 ?
b1000 @
b0 F
xE
xD
xG
xA
xB
b1 j"
1%
#64000
0%
#68000
b10 +
b10 9
b10 U
b10 f"
b10000 Q
b10000 X"
b10000 d"
b1100 *
b1100 8
b1100 T
b1100 h"
b10 j"
b1100 W"
b10000 U"
b1100 R
b1100 V"
b1100 i"
b1001 @
b1001 ?
b1001 =
1%
#72000
0%
#76000
bx +
bx 9
bx U
bx f"
bx 5
bx 2
bx 7
bx 6
bx 4
bx 3
x1
x0
x/
x.
bx )
bx C
bx H
bx c"
bx *
bx 8
bx T
bx h"
0M
b1010 =
b1010 ?
b1010 @
bx F
0E
0D
1G
0A
0B
b0 j"
1%
#80000
0%
#84000
bx *
bx 8
bx T
bx h"
1M
b0 5
b0 2
b0 7
b0 6
b0 4
b0 3
01
00
0/
0.
b0 )
b0 C
b0 H
b0 c"
b1 j"
b0 F
xE
xD
xG
xA
xB
b1011 @
b1011 ?
b1011 =
1%
#88000
0%
#92000
b10 +
b10 9
b10 U
b10 f"
b10100 Q
b10100 X"
b10100 d"
b10000 *
b10000 8
b10000 T
b10000 h"
b1 <
b0 =
b1100 ?
b1100 @
b10 j"
b10000 W"
b10100 U"
b10000 R
b10000 V"
b10000 i"
1%
#96000
0%
#100000
bx +
bx 9
bx U
bx f"
bx *
bx 8
bx T
bx h"
0M
bx 5
bx 2
bx 7
bx 6
bx 4
bx 3
x1
x0
x/
x.
bx )
bx C
bx H
bx c"
b0 j"
bx F
0E
0D
1G
0A
0B
b1101 @
b1101 ?
b1 =
1%
#104000
0%
#108000
b0 5
b0 2
b0 7
b0 6
b0 4
b0 3
01
00
0/
0.
b0 )
b0 C
b0 H
b0 c"
bx *
bx 8
bx T
bx h"
1M
b10 =
b1110 ?
b1110 @
b0 F
xE
xD
xG
xA
xB
b1 j"
1%
#112000
0%
#116000
b10 +
b10 9
b10 U
b10 f"
b11000 Q
b11000 X"
b11000 d"
b10100 *
b10100 8
b10100 T
b10100 h"
b10 j"
b10100 W"
b11000 U"
b10100 R
b10100 V"
b10100 i"
b1111 @
b1111 ?
b11 =
1%
#120000
0%
#124000
bx +
bx 9
bx U
bx f"
bx 5
bx 2
bx 7
bx 6
bx 4
bx 3
x1
x0
x/
x.
bx )
bx C
bx H
bx c"
bx *
bx 8
bx T
bx h"
0M
b100 =
b10000 ?
b10000 @
bx F
0E
0D
1G
0A
0B
b0 j"
1%
#128000
0%
#132000
bx *
bx 8
bx T
bx h"
1M
b0 5
b0 2
b0 7
b0 6
b0 4
b0 3
01
00
0/
0.
b0 )
b0 C
b0 H
b0 c"
b1 j"
b0 F
xE
xD
xG
xA
xB
b10001 @
b10001 ?
b101 =
1%
#136000
0%
#140000
b10 +
b10 9
b10 U
b10 f"
b11100 Q
b11100 X"
b11100 d"
b11000 *
b11000 8
b11000 T
b11000 h"
b110 =
b10010 ?
b10010 @
b10 j"
b11000 W"
b11100 U"
b11000 R
b11000 V"
b11000 i"
1%
#144000
0%
#148000
bx +
bx 9
bx U
bx f"
bx *
bx 8
bx T
bx h"
0M
bx 5
bx 2
bx 7
bx 6
bx 4
bx 3
x1
x0
x/
x.
bx )
bx C
bx H
bx c"
b0 j"
bx F
0E
0D
1G
0A
0B
b10011 @
b10011 ?
b111 =
1%
#152000
0%
#156000
b0 5
b0 2
b0 7
b0 6
b0 4
b0 3
01
00
0/
0.
b0 )
b0 C
b0 H
b0 c"
bx *
bx 8
bx T
bx h"
1M
b1000 =
b10100 ?
b10100 @
b0 F
xE
xD
xG
xA
xB
b1 j"
1%
#160000
0%
#164000
b10 +
b10 9
b10 U
b10 f"
b100000 Q
b100000 X"
b100000 d"
b11100 *
b11100 8
b11100 T
b11100 h"
b10 j"
b11100 W"
b100000 U"
b11100 R
b11100 V"
b11100 i"
b10101 @
b10101 ?
b1001 =
1%
#168000
0%
#172000
bx +
bx 9
bx U
bx f"
bx 5
bx 2
bx 7
bx 6
bx 4
bx 3
x1
x0
x/
x.
bx )
bx C
bx H
bx c"
bx *
bx 8
bx T
bx h"
0M
b1010 =
b10110 ?
b10110 @
bx F
0E
0D
1G
0A
0B
b0 j"
1%
#176000
0%
#180000
bx *
bx 8
bx T
bx h"
1M
b0 5
b0 2
b0 7
b0 6
b0 4
b0 3
01
00
0/
0.
b0 )
b0 C
b0 H
b0 c"
b1 j"
b0 F
xE
xD
xG
xA
xB
b10111 @
b10111 ?
b1011 =
1%
#184000
0%
#188000
b10 +
b10 9
b10 U
b10 f"
b100100 Q
b100100 X"
b100100 d"
b100000 *
b100000 8
b100000 T
b100000 h"
b10 <
b0 =
b11000 ?
b11000 @
b10 j"
b100000 W"
b100100 U"
b100000 R
b100000 V"
b100000 i"
1%
#192000
0%
#196000
bx +
bx 9
bx U
bx f"
bx *
bx 8
bx T
bx h"
0M
bx 5
bx 2
bx 7
bx 6
bx 4
bx 3
x1
x0
x/
x.
bx )
bx C
bx H
bx c"
b0 j"
bx F
0E
0D
1G
0A
0B
b11001 @
b11001 ?
b1 =
1%
#200000
0%
#204000
b0 5
b0 2
b0 7
b0 6
b0 4
b0 3
01
00
0/
0.
b0 )
b0 C
b0 H
b0 c"
bx *
bx 8
bx T
bx h"
1M
b10 =
b11010 ?
b11010 @
b0 F
xE
xD
xG
xA
xB
b1 j"
1%
#208000
0%
#212000
b10 +
b10 9
b10 U
b10 f"
b101000 Q
b101000 X"
b101000 d"
b100100 *
b100100 8
b100100 T
b100100 h"
b10 j"
b100100 W"
b101000 U"
b100100 R
b100100 V"
b100100 i"
b11011 @
b11011 ?
b11 =
1%
#216000
0%
#220000
bx +
bx 9
bx U
bx f"
bx 5
bx 2
bx 7
bx 6
bx 4
bx 3
x1
x0
x/
x.
bx )
bx C
bx H
bx c"
bx *
bx 8
bx T
bx h"
0M
b100 =
b11100 ?
b11100 @
bx F
0E
0D
1G
0A
0B
b0 j"
1%
#224000
0%
#228000
bx *
bx 8
bx T
bx h"
1M
b0 5
b0 2
b0 7
b0 6
b0 4
b0 3
01
00
0/
0.
b0 )
b0 C
b0 H
b0 c"
b1 j"
b0 F
xE
xD
xG
xA
xB
b11101 @
b11101 ?
b101 =
1%
#232000
0%
#236000
b10 +
b10 9
b10 U
b10 f"
b101100 Q
b101100 X"
b101100 d"
b101000 *
b101000 8
b101000 T
b101000 h"
b110 =
b11110 ?
b11110 @
b10 j"
b101000 W"
b101100 U"
b101000 R
b101000 V"
b101000 i"
1%
#240000
0%
#244000
bx +
bx 9
bx U
bx f"
bx *
bx 8
bx T
bx h"
0M
bx 5
bx 2
bx 7
bx 6
bx 4
bx 3
x1
x0
x/
x.
bx )
bx C
bx H
bx c"
b0 j"
bx F
0E
0D
1G
0A
0B
b11111 @
b11111 ?
b111 =
1%
#248000
0%
#252000
b0 5
b0 2
b0 7
b0 6
b0 4
b0 3
01
00
0/
0.
b0 )
b0 C
b0 H
b0 c"
bx *
bx 8
bx T
bx h"
1M
b1000 =
b100000 ?
b100000 @
b0 F
xE
xD
xG
xA
xB
b1 j"
1%
#256000
0%
#260000
b10 +
b10 9
b10 U
b10 f"
b110000 Q
b110000 X"
b110000 d"
b101100 *
b101100 8
b101100 T
b101100 h"
b10 j"
b101100 W"
b110000 U"
b101100 R
b101100 V"
b101100 i"
b100001 @
b100001 ?
b1001 =
1%
#264000
0%
#268000
bx +
bx 9
bx U
bx f"
bx 5
bx 2
bx 7
bx 6
bx 4
bx 3
x1
x0
x/
x.
bx )
bx C
bx H
bx c"
bx *
bx 8
bx T
bx h"
0M
b1010 =
b100010 ?
b100010 @
bx F
0E
0D
1G
0A
0B
b0 j"
1%
#272000
0%
#276000
bx *
bx 8
bx T
bx h"
1M
b0 5
b0 2
b0 7
b0 6
b0 4
b0 3
01
00
0/
0.
b0 )
b0 C
b0 H
b0 c"
b1 j"
b0 F
xE
xD
xG
xA
xB
b100011 @
b100011 ?
b1011 =
1%
#280000
0%
#284000
b10 +
b10 9
b10 U
b10 f"
b110100 Q
b110100 X"
b110100 d"
b110000 *
b110000 8
b110000 T
b110000 h"
b11 <
b0 =
b100100 ?
b100100 @
b10 j"
b110000 W"
b110100 U"
b110000 R
b110000 V"
b110000 i"
1%
#288000
0%
#292000
bx +
bx 9
bx U
bx f"
bx *
bx 8
bx T
bx h"
0M
bx 5
bx 2
bx 7
bx 6
bx 4
bx 3
x1
x0
x/
x.
bx )
bx C
bx H
bx c"
b0 j"
bx F
0E
0D
1G
0A
0B
b100101 @
b100101 ?
b1 =
1%
#296000
0%
#300000
b0 5
b0 2
b0 7
b0 6
b0 4
b0 3
01
00
0/
0.
b0 )
b0 C
b0 H
b0 c"
bx *
bx 8
bx T
bx h"
1M
b10 =
b100110 ?
b100110 @
b0 F
xE
xD
xG
xA
xB
b1 j"
1%
#304000
0%
#308000
b10 +
b10 9
b10 U
b10 f"
b111000 Q
b111000 X"
b111000 d"
b110100 *
b110100 8
b110100 T
b110100 h"
b10 j"
b110100 W"
b111000 U"
b110100 R
b110100 V"
b110100 i"
b100111 @
b100111 ?
b11 =
1%
#312000
0%
#316000
bx +
bx 9
bx U
bx f"
bx 5
bx 2
bx 7
bx 6
bx 4
bx 3
x1
x0
x/
x.
bx )
bx C
bx H
bx c"
bx *
bx 8
bx T
bx h"
0M
b100 =
b101000 ?
b101000 @
bx F
0E
0D
1G
0A
0B
b0 j"
1%
#320000
0%
#324000
bx *
bx 8
bx T
bx h"
1M
b0 5
b0 2
b0 7
b0 6
b0 4
b0 3
01
00
0/
0.
b0 )
b0 C
b0 H
b0 c"
b1 j"
b0 F
xE
xD
xG
xA
xB
b101001 @
b101001 ?
b101 =
1%
#328000
0%
#332000
b10 +
b10 9
b10 U
b10 f"
b111100 Q
b111100 X"
b111100 d"
b111000 *
b111000 8
b111000 T
b111000 h"
b110 =
b101010 ?
b101010 @
b10 j"
b111000 W"
b111100 U"
b111000 R
b111000 V"
b111000 i"
1%
#336000
0%
#340000
bx +
bx 9
bx U
bx f"
bx *
bx 8
bx T
bx h"
0M
bx 5
bx 2
bx 7
bx 6
bx 4
bx 3
x1
x0
x/
x.
bx )
bx C
bx H
bx c"
b0 j"
bx F
0E
0D
1G
0A
0B
b101011 @
b101011 ?
b111 =
1%
#344000
0%
#348000
b0 5
b0 2
b0 7
b0 6
b0 4
b0 3
01
00
0/
0.
b0 )
b0 C
b0 H
b0 c"
bx *
bx 8
bx T
bx h"
1M
b1000 =
b101100 ?
b101100 @
b0 F
xE
xD
xG
xA
xB
b1 j"
1%
#352000
0%
#356000
b10 +
b10 9
b10 U
b10 f"
b1000000 Q
b1000000 X"
b1000000 d"
b111100 *
b111100 8
b111100 T
b111100 h"
b10 j"
b111100 W"
b1000000 U"
b111100 R
b111100 V"
b111100 i"
b101101 @
b101101 ?
b1001 =
1%
#360000
0%
#364000
bx +
bx 9
bx U
bx f"
bx 5
bx 2
bx 7
bx 6
bx 4
bx 3
x1
x0
x/
x.
bx )
bx C
bx H
bx c"
bx *
bx 8
bx T
bx h"
0M
b1010 =
b101110 ?
b101110 @
bx F
0E
0D
1G
0A
0B
b0 j"
1%
#368000
0%
#372000
bx *
bx 8
bx T
bx h"
1M
b0 5
b0 2
b0 7
b0 6
b0 4
b0 3
01
00
0/
0.
b0 )
b0 C
b0 H
b0 c"
b1 j"
b0 F
xE
xD
xG
xA
xB
b101111 @
b101111 ?
b1011 =
1%
#376000
0%
#380000
b10 +
b10 9
b10 U
b10 f"
b1000100 Q
b1000100 X"
b1000100 d"
b1000000 *
b1000000 8
b1000000 T
b1000000 h"
b100 <
b0 =
b110000 ?
b110000 @
b10 j"
b1000000 W"
b1000100 U"
b1000000 R
b1000000 V"
b1000000 i"
1%
#384000
0%
#388000
bx +
bx 9
bx U
bx f"
bx *
bx 8
bx T
bx h"
0M
bx 5
bx 2
bx 7
bx 6
bx 4
bx 3
x1
x0
x/
x.
bx )
bx C
bx H
bx c"
b0 j"
bx F
0E
0D
1G
0A
0B
b110001 @
b110001 ?
b1 =
1%
#392000
0%
#396000
b0 5
b0 2
b0 7
b0 6
b0 4
b0 3
01
00
0/
0.
b0 )
b0 C
b0 H
b0 c"
bx *
bx 8
bx T
bx h"
1M
b10 =
b110010 ?
b110010 @
b0 F
xE
xD
xG
xA
xB
b1 j"
1%
#400000
0%
#404000
b10 +
b10 9
b10 U
b10 f"
b1001000 Q
b1001000 X"
b1001000 d"
b1000100 *
b1000100 8
b1000100 T
b1000100 h"
b10 j"
b1000100 W"
b1001000 U"
b1000100 R
b1000100 V"
b1000100 i"
b110011 @
b110011 ?
b11 =
1%
#408000
0%
#412000
bx +
bx 9
bx U
bx f"
bx 5
bx 2
bx 7
bx 6
bx 4
bx 3
x1
x0
x/
x.
bx )
bx C
bx H
bx c"
bx *
bx 8
bx T
bx h"
0M
b100 =
b110100 ?
b110100 @
bx F
0E
0D
1G
0A
0B
b0 j"
1%
#416000
0%
#420000
bx *
bx 8
bx T
bx h"
1M
b0 5
b0 2
b0 7
b0 6
b0 4
b0 3
01
00
0/
0.
b0 )
b0 C
b0 H
b0 c"
b1 j"
b0 F
xE
xD
xG
xA
xB
b110101 @
b110101 ?
b101 =
1%
#424000
0%
#428000
b10 +
b10 9
b10 U
b10 f"
b1001100 Q
b1001100 X"
b1001100 d"
b1001000 *
b1001000 8
b1001000 T
b1001000 h"
b110 =
b110110 ?
b110110 @
b10 j"
b1001000 W"
b1001100 U"
b1001000 R
b1001000 V"
b1001000 i"
1%
#432000
0%
#436000
bx +
bx 9
bx U
bx f"
bx *
bx 8
bx T
bx h"
0M
bx 5
bx 2
bx 7
bx 6
bx 4
bx 3
x1
x0
x/
x.
bx )
bx C
bx H
bx c"
b0 j"
bx F
0E
0D
1G
0A
0B
b110111 @
b110111 ?
b111 =
1%
#440000
0%
#444000
b0 5
b0 2
b0 7
b0 6
b0 4
b0 3
01
00
0/
0.
b0 )
b0 C
b0 H
b0 c"
bx *
bx 8
bx T
bx h"
1M
b1000 =
b111000 ?
b111000 @
b0 F
xE
xD
xG
xA
xB
b1 j"
1%
#448000
0%
#452000
b10 +
b10 9
b10 U
b10 f"
b1010000 Q
b1010000 X"
b1010000 d"
b1001100 *
b1001100 8
b1001100 T
b1001100 h"
b10 j"
b1001100 W"
b1010000 U"
b1001100 R
b1001100 V"
b1001100 i"
b111001 @
b111001 ?
b1001 =
1%
#456000
0%
#460000
bx +
bx 9
bx U
bx f"
bx 5
bx 2
bx 7
bx 6
bx 4
bx 3
x1
x0
x/
x.
bx )
bx C
bx H
bx c"
bx *
bx 8
bx T
bx h"
0M
b1010 =
b111010 ?
b111010 @
bx F
0E
0D
1G
0A
0B
b0 j"
1%
#464000
0%
#468000
bx *
bx 8
bx T
bx h"
1M
b0 5
b0 2
b0 7
b0 6
b0 4
b0 3
01
00
0/
0.
b0 )
b0 C
b0 H
b0 c"
b1 j"
b0 F
xE
xD
xG
xA
xB
b111011 @
b111011 ?
b1011 =
1%
#472000
0%
#476000
b10 +
b10 9
b10 U
b10 f"
b1010100 Q
b1010100 X"
b1010100 d"
b1010000 *
b1010000 8
b1010000 T
b1010000 h"
b101 <
b0 =
b111100 ?
b111100 @
b10 j"
b1010000 W"
b1010100 U"
b1010000 R
b1010000 V"
b1010000 i"
1%
#480000
0%
#484000
bx +
bx 9
bx U
bx f"
bx *
bx 8
bx T
bx h"
0M
bx 5
bx 2
bx 7
bx 6
bx 4
bx 3
x1
x0
x/
x.
bx )
bx C
bx H
bx c"
b0 j"
bx F
0E
0D
1G
0A
0B
b111101 @
b111101 ?
b1 =
1%
#488000
0%
#492000
b0 5
b0 2
b0 7
b0 6
b0 4
b0 3
01
00
0/
0.
b0 )
b0 C
b0 H
b0 c"
bx *
bx 8
bx T
bx h"
1M
b10 =
b111110 ?
b111110 @
b0 F
xE
xD
xG
xA
xB
b1 j"
1%
#496000
0%
#500000
b10 +
b10 9
b10 U
b10 f"
b1011000 Q
b1011000 X"
b1011000 d"
b1010100 *
b1010100 8
b1010100 T
b1010100 h"
b10 j"
b1010100 W"
b1011000 U"
b1010100 R
b1010100 V"
b1010100 i"
b111111 @
b111111 ?
b11 =
1%
#504000
0%
#508000
bx +
bx 9
bx U
bx f"
bx 5
bx 2
bx 7
bx 6
bx 4
bx 3
x1
x0
x/
x.
bx )
bx C
bx H
bx c"
bx *
bx 8
bx T
bx h"
0M
b100 =
b1000000 ?
b1000000 @
bx F
0E
0D
1G
0A
0B
b0 j"
1%
#512000
0%
#516000
bx *
bx 8
bx T
bx h"
1M
b0 5
b0 2
b0 7
b0 6
b0 4
b0 3
01
00
0/
0.
b0 )
b0 C
b0 H
b0 c"
b1 j"
b0 F
xE
xD
xG
xA
xB
b1000001 @
b1000001 ?
b101 =
1%
#520000
0%
#524000
b10 +
b10 9
b10 U
b10 f"
b1011100 Q
b1011100 X"
b1011100 d"
b1011000 *
b1011000 8
b1011000 T
b1011000 h"
b110 =
b1000010 ?
b1000010 @
b10 j"
b1011000 W"
b1011100 U"
b1011000 R
b1011000 V"
b1011000 i"
1%
#528000
0%
#532000
bx +
bx 9
bx U
bx f"
bx *
bx 8
bx T
bx h"
0M
bx 5
bx 2
bx 7
bx 6
bx 4
bx 3
x1
x0
x/
x.
bx )
bx C
bx H
bx c"
b0 j"
bx F
0E
0D
1G
0A
0B
b1000011 @
b1000011 ?
b111 =
1%
#536000
0%
