sim_res/state_machine_tb.vcd
$date
	Sun Apr 20 14:08:26 2025
$end
$version
	Icarus Verilog
$end
$timescale
	1ps
$end
$scope module state_machine_tb $end
$var wire 1 ! reg_wen $end
$var wire 32 " pc_in [31:0] $end
$var wire 1 # memory_wen $end
$var wire 32 $ memory_ra [31:0] $end
$var wire 3 % memory_func3 [2:0] $end
$var wire 32 & instruction [31:0] $end
$var reg 2 ' action_type [1:0] $end
$var reg 1 ( clk $end
$var reg 3 ) func3 [2:0] $end
$var reg 32 * immediate [31:0] $end
$var reg 32 + memory_rd [31:0] $end
$var reg 32 , pc_out [31:0] $end
$var reg 32 - rs1_data [31:0] $end
$scope module dut $end
$var wire 2 . action_type [1:0] $end
$var wire 1 ( clk $end
$var wire 3 / func3 [2:0] $end
$var wire 32 0 immediate [31:0] $end
$var wire 32 1 memory_rd [31:0] $end
$var wire 1 # memory_wen $end
$var wire 32 2 pc_out [31:0] $end
$var wire 1 ! reg_wen $end
$var wire 32 3 rs1_data [31:0] $end
$var wire 3 4 memory_func3 [2:0] $end
$var reg 32 5 instruction [31:0] $end
$var reg 32 6 memory_ra [31:0] $end
$var reg 32 7 pc_in [31:0] $end
$var reg 2 8 state [1:0] $end
$upscope $end
$scope task tick $end
$upscope $end
$upscope $end
$enddefinitions $end
$comment Show the parameter values. $end
$dumpall
$end
#0
$dumpvars
b10 8
b0 7
b0 6
b0 5
b10 4
b100000000000000000000000000000 3
b10000000000000000000000000000 2
b0 1
b10000 0
b10 /
b1 .
b100000000000000000000000000000 -
b10000000000000000000000000000 ,
b0 +
b10000 *
b10 )
0(
b1 '
b0 &
b10 %
b0 $
0#
b0 "
1!
$end
#1000
b100000000000000000000000010000 $
b100000000000000000000000010000 6
0!
b0 8
1(
#6000
0(
#11000
b100000000000000000000000010000 $
b100000000000000000000000010000 6
1!
b1 8
1(
#16000
0(
#21000
b10000000000000000000000000000 $
b10000000000000000000000000000 6
b10 8
b10000000000000000000000000000 "
b10000000000000000000000000000 7
1(
#26000
0(
#31000
b100000000000000000000000010000 $
b100000000000000000000000010000 6
0!
b0 8
1(
#36000
0(
#40000
b10000000000000000000000000000 $
b10000000000000000000000000000 6
b0 '
b0 .
#41000
b10000000000000000000000000000 $
b10000000000000000000000000000 6
1#
b1 8
1(
#46000
0(
#51000
b10000000000000000000000000000 $
b10000000000000000000000000000 6
0#
b10 8
1(
#56000
0(
#61000
b10000000000000000000000000000 $
b10000000000000000000000000000 6
b0 8
1(
#66000
0(
#71000
b10000000000000000000000000000 $
b10000000000000000000000000000 6
1#
b1 8
1(
#76000
0(
#80000
b10000000000000000000000000000 $
b10000000000000000000000000000 6
0#
b10 '
b10 .
#81000
b10000000000000000000000000000 $
b10000000000000000000000000000 6
b0 8
1(
#86000
0(
#91000
b10000000000000000000000000000 $
b10000000000000000000000000000 6
b1 8
1(
#96000
0(
#101000
b10000000000000000000000000000 $
b10000000000000000000000000000 6
b0 8
1(
#106000
0(
#110000
b10000000000000000000000000000 $
b10000000000000000000000000000 6
b11 '
b11 .
#111000
b10000000000000000000000000000 $
b10000000000000000000000000000 6
1!
b1 8
1(
#116000
0(
#121000
b10000000000000000000000000000 $
b10000000000000000000000000000 6
0!
b0 8
1(
#126000
0(
#131000
b10000000000000000000000000000 $
b10000000000000000000000000000 6
1!
b1 8
1(
