sim_res/top_tb.vcd
$date
	Sun Apr 20 21:59:46 2025
$end
$version
	Icarus Verilog
$end
$timescale
	1ps
$end
$scope module top_tb $end
$var wire 1 ! red $end
$var wire 1 " led $end
$var wire 1 # green $end
$var wire 1 $ blue $end
$var reg 1 % clk $end
$scope module u_top $end
$var wire 1 % clk $end
$var wire 1 & memory_wen $end
$var wire 32 ' memory_wd [31:0] $end
$var wire 32 ( memory_wa [31:0] $end
$var wire 32 ) memory_rd [31:0] $end
$var wire 32 * memory_ra [31:0] $end
$var wire 3 + memory_func3 [2:0] $end
$var wire 1 ! RGB_R $end
$var wire 1 # RGB_G $end
$var wire 1 $ RGB_B $end
$var wire 1 " LED $end
$scope module u_memory $end
$var wire 1 % clk $end
$var wire 1 & write_mem $end
$var wire 32 , write_data [31:0] $end
$var wire 32 - write_address [31:0] $end
$var wire 1 . sign_bit3 $end
$var wire 1 / sign_bit2 $end
$var wire 1 0 sign_bit1 $end
$var wire 1 1 sign_bit0 $end
$var wire 1 ! red $end
$var wire 16 2 read_value32 [15:0] $end
$var wire 8 3 read_value3 [7:0] $end
$var wire 8 4 read_value2 [7:0] $end
$var wire 16 5 read_value10 [15:0] $end
$var wire 8 6 read_value1 [7:0] $end
$var wire 8 7 read_value0 [7:0] $end
$var wire 32 8 read_address [31:0] $end
$var wire 1 " led $end
$var wire 1 # green $end
$var wire 3 9 funct3 [2:0] $end
$var wire 1 $ blue $end
$var parameter 168 : INIT_FILE $end
$var reg 32 ; leds [31:0] $end
$var reg 32 < micros [31:0] $end
$var reg 4 = micros_counter [3:0] $end
$var reg 32 > millis [31:0] $end
$var reg 14 ? millis_counter [13:0] $end
$var reg 8 @ pwm_counter [7:0] $end
$var reg 1 A read_address0 $end
$var reg 1 B read_address1 $end
$var reg 32 C read_data [31:0] $end
$var reg 1 D read_half $end
$var reg 1 E read_unsigned $end
$var reg 32 F read_value [31:0] $end
$var reg 1 G read_word $end
$upscope $end
$scope module u_risc_v $end
$var wire 1 % clk $end
$var wire 32 H memory_rd [31:0] $end
$var wire 32 I rs2_data [31:0] $end
$var wire 5 J rs2 [4:0] $end
$var wire 32 K rs1_data [31:0] $end
$var wire 5 L rs1 [4:0] $end
$var wire 1 M reg_wen $end
$var wire 2 N rd_source [1:0] $end
$var wire 5 O rd [4:0] $end
$var wire 2 P pc_source [1:0] $end
$var wire 32 Q pc_out [31:0] $end
$var wire 32 R pc_in [31:0] $end
$var wire 7 S opcode [6:0] $end
$var wire 1 & memory_wen $end
$var wire 32 T memory_ra [31:0] $end
$var wire 3 U memory_func3 [2:0] $end
$var wire 3 V instruction_type [2:0] $end
$var wire 32 W instruction [31:0] $end
$var wire 32 X immediate [31:0] $end
$var wire 7 Y func7 [6:0] $end
$var wire 3 Z func3 [2:0] $end
$var wire 2 [ alu_source [1:0] $end
$var wire 32 \ alu_result [31:0] $end
$var wire 5 ] alu_op [4:0] $end
$var parameter 7 ^ OP_AUIPC $end
$var parameter 7 _ OP_BRANCH $end
$var parameter 7 ` OP_IMM $end
$var parameter 7 a OP_JAL $end
$var parameter 7 b OP_JALR $end
$var parameter 7 c OP_LOAD $end
$var parameter 7 d OP_LUI $end
$var parameter 7 e OP_REG $end
$var parameter 7 f OP_STORE $end
$var reg 2 g action_type [1:0] $end
$var reg 32 h alu_a [31:0] $end
$var reg 32 i alu_b [31:0] $end
$var reg 32 j memory_wa [31:0] $end
$var reg 32 k memory_wd [31:0] $end
$var reg 32 l rdv [31:0] $end
$scope module u_alu $end
$var wire 32 m alu_a [31:0] $end
$var wire 32 n alu_b [31:0] $end
$var wire 1 o unsigned_lt $end
$var wire 1 p signed_lt $end
$var wire 32 q shift_amount [31:0] $end
$var wire 1 r equal $end
$var wire 5 s alu_op [4:0] $end
$var parameter 5 t ALU_ADD $end
$var parameter 5 u ALU_AND $end
$var parameter 5 v ALU_AUIPC $end
$var parameter 5 w ALU_BEQ $end
$var parameter 5 x ALU_BGE $end
$var parameter 5 y ALU_BGEU $end
$var parameter 5 z ALU_BLT $end
$var parameter 5 { ALU_BLTU $end
$var parameter 5 | ALU_BNE $end
$var parameter 5 } ALU_LUI $end
$var parameter 5 ~ ALU_OR $end
$var parameter 5 !" ALU_SLL $end
$var parameter 5 "" ALU_SLT $end
$var parameter 5 #" ALU_SLTU $end
$var parameter 5 $" ALU_SRA $end
$var parameter 5 %" ALU_SRL $end
$var parameter 5 &" ALU_SUB $end
$var parameter 5 '" ALU_XOR $end
$var reg 32 (" add_sub_result [31:0] $end
$var reg 32 )" alu_result [31:0] $end
$upscope $end
$scope module u_control $end
$var wire 3 *" func3 [2:0] $end
$var wire 7 +" func7 [6:0] $end
$var wire 7 ," opcode [6:0] $end
$var parameter 5 -" ALU_ADD $end
$var parameter 5 ." ALU_AND $end
$var parameter 5 /" ALU_AUIPC $end
$var parameter 5 0" ALU_BEQ $end
$var parameter 5 1" ALU_BGE $end
$var parameter 5 2" ALU_BGEU $end
$var parameter 5 3" ALU_BLT $end
$var parameter 5 4" ALU_BLTU $end
$var parameter 5 5" ALU_BNE $end
$var parameter 5 6" ALU_LUI $end
$var parameter 5 7" ALU_OR $end
$var parameter 5 8" ALU_SLL $end
$var parameter 5 9" ALU_SLT $end
$var parameter 5 :" ALU_SLTU $end
$var parameter 5 ;" ALU_SRA $end
$var parameter 5 <" ALU_SRL $end
$var parameter 5 =" ALU_SUB $end
$var parameter 5 >" ALU_XOR $end
$var parameter 7 ?" OP_AUIPC $end
$var parameter 7 @" OP_BRANCH $end
$var parameter 7 A" OP_IMM $end
$var parameter 7 B" OP_JAL $end
$var parameter 7 C" OP_JALR $end
$var parameter 7 D" OP_LOAD $end
$var parameter 7 E" OP_LUI $end
$var parameter 7 F" OP_REG $end
$var parameter 7 G" OP_STORE $end
$var reg 5 H" alu_op [4:0] $end
$var reg 2 I" alu_source [1:0] $end
$var reg 3 J" instruction_type [2:0] $end
$var reg 2 K" pc_source [1:0] $end
$var reg 2 L" rd_source [1:0] $end
$upscope $end
$scope module u_immed_gen $end
$var wire 7 M" opcode [6:0] $end
$var wire 32 N" instruction [31:0] $end
$var reg 32 O" immediate [31:0] $end
$upscope $end
$scope module u_program_counter $end
$var wire 32 P" alu_result [31:0] $end
$var wire 32 Q" immediate [31:0] $end
$var wire 2 R" pc_source [1:0] $end
$var wire 32 S" rs1_data [31:0] $end
$var wire 32 T" pc_rs1 [31:0] $end
$var wire 32 U" pc_increment [31:0] $end
$var wire 32 V" pc_in [31:0] $end
$var wire 32 W" pc_immed [31:0] $end
$var reg 32 X" pc_out [31:0] $end
$upscope $end
$scope module u_register_file $end
$var wire 1 % clk $end
$var wire 5 Y" rd [4:0] $end
$var wire 32 Z" rdv [31:0] $end
$var wire 5 [" rs1 [4:0] $end
$var wire 5 \" rs2 [4:0] $end
$var wire 1 M reg_wen $end
$var reg 5 ]" last_rd [4:0] $end
$var reg 32 ^" last_rdv [31:0] $end
$var reg 1 _" last_wen $end
$var reg 32 `" rs1_data [31:0] $end
$var reg 32 a" rs2_data [31:0] $end
$scope begin $ivl_for_loop0 $end
$var integer 32 b" i [31:0] $end
$upscope $end
$upscope $end
$scope module u_state_machine $end
$var wire 2 c" action_type [1:0] $end
$var wire 1 % clk $end
$var wire 3 d" func3 [2:0] $end
$var wire 32 e" immediate [31:0] $end
$var wire 32 f" memory_rd [31:0] $end
$var wire 1 & memory_wen $end
$var wire 32 g" pc_out [31:0] $end
$var wire 1 M reg_wen $end
$var wire 32 h" rs1_data [31:0] $end
$var wire 3 i" memory_func3 [2:0] $end
$var reg 32 j" instruction [31:0] $end
$var reg 32 k" memory_ra [31:0] $end
$var reg 32 l" pc_in [31:0] $end
$var reg 2 m" state [1:0] $end
$upscope $end
$upscope $end
$upscope $end
$upscope $end
$enddefinitions $end
$comment Show the parameter values. $end
$dumpall
b100011 G"
b110011 F"
b110111 E"
b11 D"
b1100111 C"
b1101111 B"
b10011 A"
b1100011 @"
b10111 ?"
b101 >"
b1 ="
b110 <"
b111 ;"
b100 :"
b11 9"
b10 8"
b1000 7"
b1011 6"
b1101 5"
b10000 4"
b1110 3"
b10001 2"
b1111 1"
b1010 0"
b1100 /"
b1001 ."
b0 -"
b101 '"
b1 &"
b110 %"
b111 $"
b100 #"
b11 ""
b10 !"
b1000 ~
b1011 }
b1101 |
b10000 {
b1110 z
b10001 y
b1111 x
b1010 w
b1100 v
b1001 u
b0 t
b100011 f
b110011 e
b110111 d
b11 c
b1100111 b
b1101111 a
b10011 `
b1100011 _
b10111 ^
b11100100111011000110011001100100110100101011111011101000110010101110011011101000101111101110011011010010110111001100111011011000110010100101110011101000111100001110100 :
$end
#0
$dumpvars
b10 m"
b0 l"
b0 k"
b0 j"
b10 i"
b0 h"
b100 g"
b0 f"
b0 e"
b0 d"
b1 c"
b100000 b"
b0 a"
b0 `"
0_"
b0 ^"
b0 ]"
b0 \"
b0 ["
b0 Z"
b0 Y"
b100 X"
b0 W"
b0 V"
b100 U"
b0 T"
b0 S"
b11 R"
b0 Q"
b0 P"
b0 O"
b0 N"
b0 M"
b0 L"
b11 K"
bx J"
b0 I"
b0 H"
b0 ,"
b0 +"
b0 *"
b0 )"
b0 ("
b0 s
1r
b0 q
0p
0o
b0 n
b0 m
b0 l
bx k
bx j
b0 i
b0 h
b1 g
b0 ]
b0 \
b0 [
b0 Z
b0 Y
b0 X
b0 W
bx V
b10 U
b0 T
b0 S
b0 R
b100 Q
b11 P
b0 O
b0 N
1M
b0 L
b0 K
b0 J
b0 I
b0 H
xG
b0 F
xE
xD
b0 C
xB
xA
b0 @
b0 ?
b0 >
b0 =
b0 <
b0 ;
b10 9
b0 8
b0 7
b0 6
b0 5
b0 4
b0 3
b0 2
01
00
0/
0.
bx -
bx ,
b10 +
b0 *
b0 )
bx (
bx '
0&
0%
0$
0#
0"
0!
$end
#4000
b0 +
b0 9
b0 U
b0 i"
0M
b1100000010110111 5
b1111111011011100 2
b10110111 7
b11000000 6
b11011100 4
b11111110 3
11
10
1/
1.
b11111110110111001100000010110111 )
b11111110110111001100000010110111 C
b11111110110111001100000010110111 H
b11111110110111001100000010110111 f"
1_"
b0 m"
b11111110110111001100000010110111 F
0E
0D
1G
0A
0B
b1 @
b1 ?
b1 =
1%
#8000
0%
#12000
b11111110110111001100000000000000 *
b11111110110111001100000000000000 8
b11111110110111001100000000000000 T
b11111110110111001100000000000000 k"
b11111110110111001100000000000000 l
b11111110110111001100000000000000 Z"
b11111110110111001100000000000000 W"
b11111110110111001100000000000000 T"
b11111110110111001100000000000000 X
b11111110110111001100000000000000 O"
b11111110110111001100000000000000 Q"
b11111110110111001100000000000000 e"
b100 +
b100 9
b100 U
b100 i"
b0 V
b0 J"
b11 N
b11 L"
b11111111111111111111111110110111 )
b11111111111111111111111110110111 C
b11111111111111111111111110110111 H
b11111111111111111111111110110111 f"
b110111 M"
b1 O
b1 Y"
b1101 J
b1101 \"
b11001 L
b11001 ["
b1111111 Y
b1111111 +"
b100 Z
b100 *"
b100 d"
b110111 S
b110111 ,"
1M
b10 =
b10 ?
b10 @
0G
b11111110110111001100000010110111 W
b11111110110111001100000010110111 N"
b11111110110111001100000010110111 j"
b1 m"
0_"
1%
#16000
0%
#20000
b10 +
b10 9
b10 U
b10 i"
b1000 Q
b1000 X"
b1000 g"
b100 *
b100 8
b100 T
b100 k"
b0 5
b0 2
b0 7
b0 6
b0 4
b0 3
01
00
0/
0.
b0 )
b0 C
b0 H
b0 f"
1_"
b11111110110111001100000000000000 ^"
b1 ]"
b10 m"
b11111110110111001100000000000100 W"
b1000 U"
b100 R
b100 V"
b100 l"
b0 F
1E
b11 @
b11 ?
b11 =
1%
#24000
0%
#28000
b100 +
b100 9
b100 U
b100 i"
b1000000010010011 5
b1111111110110000 2
b10010011 7
b10000000 6
b10110000 4
b11111111 3
11
10
1/
1.
b11111111101100001000000010010011 )
b11111111101100001000000010010011 C
b11111111101100001000000010010011 H
b11111111101100001000000010010011 f"
b11111110110111001100000000000000 *
b11111110110111001100000000000000 8
b11111110110111001100000000000000 T
b11111110110111001100000000000000 k"
0M
b100 =
b100 ?
b100 @
b11111111101100001000000010010011 F
0E
1G
b0 m"
1%
#32000
0%
#36000
b11011 q
b11111110110111001011111111111011 \
b11111110110111001011111111111011 )"
b11111110110111001011111111111011 P"
1o
b11111111111111111111111111111011 i
b11111111111111111111111111111011 n
b11111110110111001011111111111011 ("
b0 +
b0 9
b0 U
b0 i"
b1 [
b1 I"
b11 V
b11 J"
b0 N
b0 L"
0r
1p
b11111110110111001100000000000000 h
b11111110110111001100000000000000 m
b11111110110111001011111111111011 l
b11111110110111001011111111111011 Z"
b11111110110111001100000000000000 K
b11111110110111001100000000000000 S"
b11111110110111001100000000000000 `"
b11111110110111001100000000000000 h"
b10011 M"
b11011 J
b11011 \"
b1 L
b1 ["
b0 Z
b0 *"
b0 d"
b10011 S
b10011 ,"
b11111111111111111111111111111111 W"
b11111110110111001011111111111011 T"
b11111111111111111111111111111011 X
b11111111111111111111111111111011 O"
b11111111111111111111111111111011 Q"
b11111111111111111111111111111011 e"
b11111110110111001011111111111011 *
b11111110110111001011111111111011 8
b11111110110111001011111111111011 T
b11111110110111001011111111111011 k"
1M
b0 5
b0 2
b0 7
b0 6
b0 4
b0 3
01
00
0/
0.
b0 )
b0 C
b0 H
b0 f"
0_"
b11111111101100001000000010010011 W
b11111111101100001000000010010011 N"
b11111111101100001000000010010011 j"
b1 m"
b0 F
1E
0G
b101 @
b101 ?
b101 =
1%
#40000
0%
#44000
b10 +
b10 9
b10 U
b10 i"
b11111110110111001011111111110110 l
b11111110110111001011111111110110 Z"
b11111110110111001011111111110110 \
b11111110110111001011111111110110 )"
b11111110110111001011111111110110 P"
b11111110110111001011111111110110 ("
b1100 Q
b1100 X"
b1100 g"
b11111110110111001011111111111011 h
b11111110110111001011111111111011 m
b1000 *
b1000 8
b1000 T
b1000 k"
b11111110110111001011111111110110 T"
b11111110110111001011111111111011 K
b11111110110111001011111111111011 S"
b11111110110111001011111111111011 `"
b11111110110111001011111111111011 h"
b110 =
b110 ?
b110 @
0E
1A
1B
b10 m"
b11 W"
b1100 U"
b1000 R
b1000 V"
b1000 l"
1_"
b11111110110111001011111111111011 ^"
1%
#48000
0%
#52000
b11111110110111001011111111110001 l
b11111110110111001011111111110001 Z"
b11111110110111001011111111110001 \
b11111110110111001011111111110001 )"
b11111110110111001011111111110001 P"
b11111110110111001011111111110001 ("
b11111110110111001011111111110110 h
b11111110110111001011111111110110 m
b0 +
b0 9
b0 U
b0 i"
b11111110110111001011111111110001 T"
b11111110110111001011111111110110 K
b11111110110111001011111111110110 S"
b11111110110111001011111111110110 `"
b11111110110111001011111111110110 h"
b11111110110111001011111111110001 *
b11111110110111001011111111110001 8
b11111110110111001011111111110001 T
b11111110110111001011111111110001 k"
0M
b1101000100010011 5
b1000000 2
b10011 7
b11010001 6
b1000000 4
10
b10000001101000100010011 )
b10000001101000100010011 C
b10000001101000100010011 H
b10000001101000100010011 f"
b11111110110111001011111111110110 ^"
b0 m"
b10000001101000100010011 F
1G
0A
0B
b111 @
b111 ?
b111 =
1%
#56000
0%
#60000
b100 q
b1111111011011100101111111111 l
b1111111011011100101111111111 Z"
b11111110110111001011111111111010 ("
b1111111011011100101111111111 \
b1111111011011100101111111111 )"
b1111111011011100101111111111 P"
b110 ]
b110 s
b110 H"
b101 +
b101 9
b101 U
b101 i"
0o
b100 i
b100 n
b0 5
b0 2
b0 7
b0 6
b0 4
00
b0 )
b0 C
b0 H
b0 f"
b10 O
b10 Y"
b100 J
b100 \"
b0 Y
b0 +"
b101 Z
b101 *"
b101 d"
b1100 W"
b11111110110111001011111111111010 T"
b100 X
b100 O"
b100 Q"
b100 e"
b11111110110111001011111111111010 *
b11111110110111001011111111111010 8
b11111110110111001011111111111010 T
b11111110110111001011111111111010 k"
1M
b1000 =
b1000 ?
b1000 @
b0 F
0G
1A
b10000001101000100010011 W
b10000001101000100010011 N"
b10000001101000100010011 j"
b1 m"
0_"
b11111110110111001011111111110001 ^"
1%
#64000
0%
#68000
b10 +
b10 9
b10 U
b10 i"
b10000 Q
b10000 X"
b10000 g"
b1100 *
b1100 8
b1100 T
b1100 k"
1_"
b1111111011011100101111111111 ^"
b10 ]"
b10 m"
b10000 W"
b10000 U"
b1100 R
b1100 V"
b1100 l"
1E
1D
0A
1B
b1001 @
b1001 ?
b1001 =
1%
#72000
0%
#76000
b101 +
b101 9
b101 U
b101 i"
b1101000110010011 5
b100000001000000 2
b10010011 7
b11010001 6
b1000000 4
b1000000 3
11
10
b1000000010000001101000110010011 )
b1000000010000001101000110010011 C
b1000000010000001101000110010011 H
b1000000010000001101000110010011 f"
b11111110110111001011111111111010 *
b11111110110111001011111111111010 8
b11111110110111001011111111111010 T
b11111110110111001011111111111010 k"
0M
b1010 =
b1010 ?
b1010 @
b1000000010000001101000110010011 F
0E
0D
1G
0B
b0 m"
1%
#80000
0%
#84000
b11111111111011011100101111111111 l
b11111111111011011100101111111111 Z"
b11111111111011011100101111111111 \
b11111111111011011100101111111111 )"
b11111111111011011100101111111111 P"
b11111110110111001100001111111010 ("
b111 ]
b111 s
b111 H"
b10000000100 i
b10000000100 n
b11 O
b11 Y"
b100000 Y
b100000 +"
b10000010000 W"
b11111110110111001100001111111010 T"
b10000000100 X
b10000000100 O"
b10000000100 Q"
b10000000100 e"
b11111110110111001100001111111010 *
b11111110110111001100001111111010 8
b11111110110111001100001111111010 T
b11111110110111001100001111111010 k"
1M
b0 5
b0 2
b0 7
b0 6
b0 4
b0 3
01
00
b0 )
b0 C
b0 H
b0 f"
0_"
b1000000010000001101000110010011 W
b1000000010000001101000110010011 N"
b1000000010000001101000110010011 j"
b1 m"
b0 F
1E
1D
0G
1B
b1011 @
b1011 ?
b1011 =
1%
#88000
0%
#92000
b10 +
b10 9
b10 U
b10 i"
b10100 Q
b10100 X"
b10100 g"
b10000 *
b10000 8
b10000 T
b10000 k"
b1 <
b0 =
b1100 ?
b1100 @
b10 m"
b10000010100 W"
b10100 U"
b10000 R
b10000 V"
b10000 l"
1_"
b11111111111011011100101111111111 ^"
b11 ]"
1%
#96000
0%
#100000
b101 +
b101 9
b101 U
b101 i"
b11111110110111001100001111111010 *
b11111110110111001100001111111010 8
b11111110110111001100001111111010 T
b11111110110111001100001111111010 k"
0M
b1100001000010011 5
b1111111111110001 2
b10011 7
b11000010 6
b11110001 4
b11111111 3
10
1/
1.
b11111111111100011100001000010011 )
b11111111111100011100001000010011 C
b11111111111100011100001000010011 H
b11111111111100011100001000010011 f"
b0 m"
b11111111111100011100001000010011 F
0E
0D
1G
0B
b1101 @
b1101 ?
b1 =
1%
#104000
0%
#108000
b11111 q
b100100011010000000000 l
b100100011010000000000 Z"
b11111111111011011100101111111111 h
b11111111111011011100101111111111 m
b11111111111011011100101111111110 ("
b100100011010000000000 \
b100100011010000000000 )"
b100100011010000000000 P"
b11111111111011011100101111111111 K
b11111111111011011100101111111111 S"
b11111111111011011100101111111111 `"
b11111111111011011100101111111111 h"
b101 ]
b101 s
b101 H"
b100 +
b100 9
b100 U
b100 i"
1o
b11111111111111111111111111111111 i
b11111111111111111111111111111111 n
b0 5
b0 2
b0 7
b0 6
b0 4
b0 3
00
0/
0.
b0 )
b0 C
b0 H
b0 f"
b100 O
b100 Y"
b11111 J
b11111 \"
b11 L
b11 ["
b1111111 Y
b1111111 +"
b100 Z
b100 *"
b100 d"
b1111 W"
b11111111111011011100101111111110 T"
b11111111111111111111111111111111 X
b11111111111111111111111111111111 O"
b11111111111111111111111111111111 Q"
b11111111111111111111111111111111 e"
b11111111111011011100101111111110 *
b11111111111011011100101111111110 8
b11111111111011011100101111111110 T
b11111111111011011100101111111110 k"
1M
b10 =
b1110 ?
b1110 @
b0 F
1E
1D
0G
1B
b11111111111100011100001000010011 W
b11111111111100011100001000010011 N"
b11111111111100011100001000010011 j"
b1 m"
0_"
1%
#112000
0%
#116000
b10 +
b10 9
b10 U
b10 i"
b11000 Q
b11000 X"
b11000 g"
b10100 *
b10100 8
b10100 T
b10100 k"
1_"
b100100011010000000000 ^"
b100 ]"
b10 m"
b10011 W"
b11000 U"
b10100 R
b10100 V"
b10100 l"
0D
b1111 @
b1111 ?
b11 =
1%
#120000
0%
#124000
b100 +
b100 9
b100 U
b100 i"
b1010010011 5
b100000 2
b10010011 7
b10 6
b100000 4
11
b1000000000001010010011 )
b1000000000001010010011 C
b1000000000001010010011 H
b1000000000001010010011 f"
b11111111111011011100101111111110 *
b11111111111011011100101111111110 8
b11111111111011011100101111111110 T
b11111111111011011100101111111110 k"
0M
b100 =
b10000 ?
b10000 @
b1000000000001010010011 F
0E
1G
0B
b0 m"
1%
#128000
0%
#132000
b10 q
b10 l
b10 Z"
b10 ("
b10 \
b10 )"
b10 P"
b0 ]
b0 s
b0 H"
b0 +
b0 9
b0 U
b0 i"
b10 i
b10 n
1p
b0 h
b0 m
b1111111011011100101111111111 I
b1111111011011100101111111111 a"
b0 K
b0 S"
b0 `"
b0 h"
b101 O
b101 Y"
b10 J
b10 \"
b0 L
b0 ["
b0 Y
b0 +"
b0 Z
b0 *"
b0 d"
b10110 W"
b10 T"
b10 X
b10 O"
b10 Q"
b10 e"
b10 *
b10 8
b10 T
b10 k"
1M
b0 5
b0 2
b0 7
b0 6
b0 4
01
b0 )
b0 C
b0 H
b0 f"
0_"
b1000000000001010010011 W
b1000000000001010010011 N"
b1000000000001010010011 j"
b1 m"
b0 F
1E
0G
1B
b10001 @
b10001 ?
b101 =
1%
#136000
0%
#140000
b11111111111111111111111111011100 )
b11111111111111111111111111011100 C
b11111111111111111111111111011100 H
b11111111111111111111111111011100 f"
b10 +
b10 9
b10 U
b10 i"
b1100000010110111 5
b1111111011011100 2
b10110111 7
b11000000 6
b11011100 4
b11111110 3
11
10
1/
1.
b11100 Q
b11100 X"
b11100 g"
b11000 *
b11000 8
b11000 T
b11000 k"
b110 =
b10010 ?
b10010 @
b11111110110111001100000010110111 F
0E
b10 m"
b11010 W"
b11100 U"
b11000 R
b11000 V"
b11000 l"
1_"
b10 ^"
b101 ]"
1%
#144000
0%
#148000
b0 +
b0 9
b0 U
b0 i"
b10 *
b10 8
b10 T
b10 k"
0M
b1000001100110011 5
b1000010 2
b110011 7
b10000011 6
b1000010 4
b0 3
01
0/
0.
b10000101000001100110011 )
b10000101000001100110011 C
b10000101000001100110011 H
b10000101000001100110011 f"
b0 m"
b10000101000001100110011 F
1G
0B
b10011 @
b10011 ?
b111 =
1%
#152000
0%
#156000
b0 q
b100100011010000000010 l
b100100011010000000010 Z"
b10 h
b10 m
b100100011010000000010 \
b100100011010000000010 )"
b100100011010000000010 P"
b100100011010000000010 ("
b100100011010000000000 I
b100100011010000000000 a"
b10 K
b10 S"
b10 `"
b10 h"
b0 [
b0 I"
b10 V
b10 J"
b100100011010000000000 i
b100100011010000000000 n
b1100000010110111 5
b1111111011011100 2
b10110111 7
b11000000 6
b11011100 4
b11111110 3
11
1/
1.
b11111111111111111111111111011100 )
b11111111111111111111111111011100 C
b11111111111111111111111111011100 H
b11111111111111111111111111011100 f"
b110011 M"
b110 O
b110 Y"
b100 J
b100 \"
b101 L
b101 ["
b110011 S
b110011 ,"
b11000 W"
b10 T"
b0 X
b0 O"
b0 Q"
b0 e"
b10 *
b10 8
b10 T
b10 k"
1M
b1000 =
b10100 ?
b10100 @
b11111110110111001100000010110111 F
0G
1B
b10000101000001100110011 W
b10000101000001100110011 N"
b10000101000001100110011 j"
b1 m"
0_"
1%
#160000
0%
#164000
b10 +
b10 9
b10 U
b10 i"
b100000 Q
b100000 X"
b100000 g"
b11100 *
b11100 8
b11100 T
b11100 k"
1_"
b100100011010000000010 ^"
b110 ]"
b10 m"
b11100 W"
b100000 U"
b11100 R
b11100 V"
b11100 l"
b10101 @
b10101 ?
b1001 =
1%
#168000
0%
#172000
b0 +
b0 9
b0 U
b0 i"
b1110110011 5
b100000001000011 2
b10110011 7
b11 6
b1000011 4
b1000000 3
00
0/
0.
b1000000010000110000001110110011 )
b1000000010000110000001110110011 C
b1000000010000110000001110110011 H
b1000000010000110000001110110011 f"
b10 *
b10 8
b10 T
b10 k"
0M
b1010 =
b10110 ?
b10110 @
b1000000010000110000001110110011 F
1G
0B
b0 m"
1%
#176000
0%
#180000
b10 l
b10 Z"
b10 \
b10 )"
b10 P"
b10 ("
0p
0o
b100100011010000000010 h
b100100011010000000010 m
b1 ]
b1 s
b1 H"
b100100011010000000010 T"
b100100011010000000010 K
b100100011010000000010 S"
b100100011010000000010 `"
b100100011010000000010 h"
b111 O
b111 Y"
b110 L
b110 ["
b100000 Y
b100000 +"
b100100011010000000010 *
b100100011010000000010 8
b100100011010000000010 T
b100100011010000000010 k"
1M
b1100000010110111 5
b1111111011011100 2
b10110111 7
b11000000 6
b11011100 4
b11111110 3
10
1/
1.
b11111111111111111111111111011100 )
b11111111111111111111111111011100 C
b11111111111111111111111111011100 H
b11111111111111111111111111011100 f"
0_"
b1000000010000110000001110110011 W
b1000000010000110000001110110011 N"
b1000000010000110000001110110011 j"
b1 m"
b11111110110111001100000010110111 F
0G
1B
b10111 @
b10111 ?
b1011 =
1%
#184000
0%
#188000
b10 +
b10 9
b10 U
b10 i"
b0 )
b0 C
b0 H
b0 f"
b0 5
b0 2
b0 7
b0 6
b0 4
b0 3
01
00
0/
0.
b100100 Q
b100100 X"
b100100 g"
b100000 *
b100000 8
b100000 T
b100000 k"
b10 <
b0 =
b11000 ?
b11000 @
b0 F
b10 m"
b100000 W"
b100100 U"
b100000 R
b100000 V"
b100000 l"
1_"
b10 ^"
b111 ]"
1%
#192000
0%
#196000
b0 +
b0 9
b0 U
b0 i"
b100100011010000000010 *
b100100011010000000010 8
b100100011010000000010 T
b100100011010000000010 k"
0M
b1010000110011 5
b1010010 2
b110011 7
b10100 6
b1010010 4
b10100100001010000110011 )
b10100100001010000110011 C
b10100100001010000110011 H
b10100100001010000110011 f"
b0 m"
b10100100001010000110011 F
1G
0B
b11001 @
b11001 ?
b1 =
1%
#200000
0%
#204000
b10 q
b10010001101000000000000 l
b10010001101000000000000 Z"
b10 i
b10 n
0r
b100100011010000000000 h
b100100011010000000000 m
b10010001101000000000000 \
b10010001101000000000000 )"
b10010001101000000000000 P"
b100100011010000000010 ("
b10 I
b10 a"
b100100011010000000000 T"
b100100011010000000000 K
b100100011010000000000 S"
b100100011010000000000 `"
b100100011010000000000 h"
b10 ]
b10 s
b10 H"
b1 +
b1 9
b1 U
b1 i"
b0 5
b0 2
b0 7
b0 6
b0 4
b0 )
b0 C
b0 H
b0 f"
b1000 O
b1000 Y"
b101 J
b101 \"
b100 L
b100 ["
b0 Y
b0 +"
b1 Z
b1 *"
b1 d"
b100100011010000000000 *
b100100011010000000000 8
b100100011010000000000 T
b100100011010000000000 k"
1M
b10 =
b11010 ?
b11010 @
b0 F
0G
1B
b10100100001010000110011 W
b10100100001010000110011 N"
b10100100001010000110011 j"
b1 m"
0_"
1%
#208000
0%
#212000
b10 +
b10 9
b10 U
b10 i"
b101000 Q
b101000 X"
b101000 g"
b100100 *
b100100 8
b100100 T
b100100 k"
1_"
b10010001101000000000000 ^"
b1000 ]"
b10 m"
b100100 W"
b101000 U"
b100100 R
b100100 V"
b100100 l"
1D
0B
b11011 @
b11011 ?
b11 =
1%
#216000
0%
#220000
b1 +
b1 9
b1 U
b1 i"
b110010010010011 5
b1110100 2
b10010011 7
b1100100 6
b1110100 4
11
b11101000110010010010011 )
b11101000110010010010011 C
b11101000110010010010011 H
b11101000110010010010011 f"
b100100011010000000000 *
b100100011010000000000 8
b100100011010000000000 T
b100100011010000000000 k"
0M
b100 =
b11100 ?
b11100 @
b11101000110010010010011 F
0D
1G
b0 m"
1%
#224000
0%
#228000
b111 q
b10010001101000000000111 l
b10010001101000000000111 Z"
b10010001101000000000111 \
b10010001101000000000111 )"
b10010001101000000000111 P"
b10010001101000000000111 ("
b111 i
b111 n
b10010001101000000000000 h
b10010001101000000000000 m
b101011 W"
b111 X
b111 O"
b111 Q"
b111 e"
b110 +
b110 9
b110 U
b110 i"
b1000 ]
b1000 s
b1000 H"
b1 [
b1 I"
b11 V
b11 J"
b10010001101000000000111 T"
b10010001101000000000000 K
b10010001101000000000000 S"
b10010001101000000000000 `"
b10010001101000000000000 h"
b10011 M"
b1001 O
b1001 Y"
b111 J
b111 \"
b1000 L
b1000 ["
b110 Z
b110 *"
b110 d"
b10011 S
b10011 ,"
b10010001101000000000111 *
b10010001101000000000111 8
b10010001101000000000111 T
b10010001101000000000111 k"
1M
b0 5
b0 2
b0 7
b0 6
b0 4
01
b0 )
b0 C
b0 H
b0 f"
0_"
b11101000110010010010011 W
b11101000110010010010011 N"
b11101000110010010010011 j"
b1 m"
b0 F
1D
0G
b11101 @
b11101 ?
b101 =
1%
#232000
0%
#236000
b10 +
b10 9
b10 U
b10 i"
b101100 Q
b101100 X"
b101100 g"
b101000 *
b101000 8
b101000 T
b101000 k"
b110 =
b11110 ?
b11110 @
1E
0D
1G
1A
1B
b10 m"
b101111 W"
b101100 U"
b101000 R
b101000 V"
b101000 l"
1_"
b10010001101000000000111 ^"
b1001 ]"
1%
#240000
0%
#244000
b110 +
b110 9
b110 U
b110 i"
b10010001101000000000111 *
b10010001101000000000111 8
b10010001101000000000111 T
b10010001101000000000111 k"
0M
b101010100010111 5
b1001000110100 2
b10111 7
b1010101 6
b110100 4
b10010 3
b10010001101000101010100010111 )
b10010001101000101010100010111 C
b10010001101000101010100010111 H
b10010001101000101010100010111 f"
b0 m"
b10010001101000101010100010111 F
0E
0A
0B
b11111 @
b11111 ?
b111 =
1%
#248000
0%
